<?xml version="1.0" encoding="utf-8"  standalone="no"?>
<!DOCTYPE svg PUBLIC "-//W3C//DTD SVG 1.1//EN" 
 "http://www.w3.org/Graphics/SVG/1.1/DTD/svg11.dtd">
<svg 
 width="400" height="300" 
 viewBox="0 0 400 300"
 xmlns="http://www.w3.org/2000/svg"
 xmlns:xlink="http://www.w3.org/1999/xlink"
>

<title>Gnuplot</title>
<desc>Produced by GNUPLOT 4.6 patchlevel 3 </desc>

<g id="gnuplot_canvas">

<rect x="0" y="0" width="400" height="300" fill="none"/>
<defs>

	<circle id='gpDot' r='0.5' stroke-width='0.5'/>
	<path id='gpPt0' stroke-width='0.267' stroke='currentColor' d='M-1,0 h2 M0,-1 v2'/>
	<path id='gpPt1' stroke-width='0.267' stroke='currentColor' d='M-1,-1 L1,1 M1,-1 L-1,1'/>
	<path id='gpPt2' stroke-width='0.267' stroke='currentColor' d='M-1,0 L1,0 M0,-1 L0,1 M-1,-1 L1,1 M-1,1 L1,-1'/>
	<rect id='gpPt3' stroke-width='0.267' stroke='currentColor' x='-1' y='-1' width='2' height='2'/>
	<rect id='gpPt4' stroke-width='0.267' stroke='currentColor' fill='currentColor' x='-1' y='-1' width='2' height='2'/>
	<circle id='gpPt5' stroke-width='0.267' stroke='currentColor' cx='0' cy='0' r='1'/>
	<use xlink:href='#gpPt5' id='gpPt6' fill='currentColor' stroke='none'/>
	<path id='gpPt7' stroke-width='0.267' stroke='currentColor' d='M0,-1.33 L-1.33,0.67 L1.33,0.67 z'/>
	<use xlink:href='#gpPt7' id='gpPt8' fill='currentColor' stroke='none'/>
	<use xlink:href='#gpPt7' id='gpPt9' stroke='currentColor' transform='rotate(180)'/>
	<use xlink:href='#gpPt9' id='gpPt10' fill='currentColor' stroke='none'/>
	<use xlink:href='#gpPt3' id='gpPt11' stroke='currentColor' transform='rotate(45)'/>
	<use xlink:href='#gpPt11' id='gpPt12' fill='currentColor' stroke='none'/>
</defs>
<g style="fill:none; color:white; stroke:black; stroke-width:1.00; stroke-linecap:butt; stroke-linejoin:miter">
</g>
<g style="fill:none; color:black; stroke:currentColor; stroke-width:1.00; stroke-linecap:butt; stroke-linejoin:miter">
	<path stroke='black'  d='M60.5,252.0 L68.0,252.0 M378.9,252.0 L371.4,252.0  h0.01'/>	<g transform="translate(53.5,255.7)" style="stroke:none; fill:black; font-family:arial; font-size:10.00pt; text-anchor:end">
		<text><tspan>0</tspan></text>
	</g>
	<path stroke='black'  d='M60.5,231.3 L68.0,231.3 M378.9,231.3 L371.4,231.3  h0.01'/>	<g transform="translate(53.5,235.0)" style="stroke:none; fill:black; font-family:arial; font-size:10.00pt; text-anchor:end">
		<text><tspan>100</tspan></text>
	</g>
	<path stroke='black'  d='M60.5,210.6 L68.0,210.6 M378.9,210.6 L371.4,210.6  h0.01'/>	<g transform="translate(53.5,214.3)" style="stroke:none; fill:black; font-family:arial; font-size:10.00pt; text-anchor:end">
		<text><tspan>200</tspan></text>
	</g>
	<path stroke='black'  d='M60.5,189.9 L68.0,189.9 M378.9,189.9 L371.4,189.9  h0.01'/>	<g transform="translate(53.5,193.6)" style="stroke:none; fill:black; font-family:arial; font-size:10.00pt; text-anchor:end">
		<text><tspan>300</tspan></text>
	</g>
	<path stroke='black'  d='M60.5,169.2 L68.0,169.2 M378.9,169.2 L371.4,169.2  h0.01'/>	<g transform="translate(53.5,172.9)" style="stroke:none; fill:black; font-family:arial; font-size:10.00pt; text-anchor:end">
		<text><tspan>400</tspan></text>
	</g>
	<path stroke='black'  d='M60.5,148.5 L68.0,148.5 M378.9,148.5 L371.4,148.5  h0.01'/>	<g transform="translate(53.5,152.2)" style="stroke:none; fill:black; font-family:arial; font-size:10.00pt; text-anchor:end">
		<text><tspan>500</tspan></text>
	</g>
	<path stroke='black'  d='M60.5,127.9 L68.0,127.9 M378.9,127.9 L371.4,127.9  h0.01'/>	<g transform="translate(53.5,131.6)" style="stroke:none; fill:black; font-family:arial; font-size:10.00pt; text-anchor:end">
		<text><tspan>600</tspan></text>
	</g>
	<path stroke='black'  d='M60.5,107.2 L68.0,107.2 M378.9,107.2 L371.4,107.2  h0.01'/>	<g transform="translate(53.5,110.9)" style="stroke:none; fill:black; font-family:arial; font-size:10.00pt; text-anchor:end">
		<text><tspan>700</tspan></text>
	</g>
	<path stroke='black'  d='M60.5,86.5 L68.0,86.5 M378.9,86.5 L371.4,86.5  h0.01'/>	<g transform="translate(53.5,90.2)" style="stroke:none; fill:black; font-family:arial; font-size:10.00pt; text-anchor:end">
		<text><tspan>800</tspan></text>
	</g>
	<path stroke='black'  d='M60.5,65.8 L68.0,65.8 M378.9,65.8 L371.4,65.8  h0.01'/>	<g transform="translate(53.5,69.5)" style="stroke:none; fill:black; font-family:arial; font-size:10.00pt; text-anchor:end">
		<text><tspan>900</tspan></text>
	</g>
	<path stroke='black'  d='M60.5,45.1 L68.0,45.1 M378.9,45.1 L371.4,45.1  h0.01'/>	<g transform="translate(53.5,48.8)" style="stroke:none; fill:black; font-family:arial; font-size:10.00pt; text-anchor:end">
		<text><tspan>1000</tspan></text>
	</g>
	<path stroke='black'  d='M60.5,252.0 L60.5,244.5 M60.5,45.1 L60.5,52.6  h0.01'/>	<g transform="translate(60.5,270.7)" style="stroke:none; fill:black; font-family:arial; font-size:10.00pt; text-anchor:middle">
		<text><tspan>0</tspan></text>
	</g>
	<path stroke='black'  d='M124.2,252.0 L124.2,244.5 M124.2,45.1 L124.2,52.6  h0.01'/>	<g transform="translate(124.2,270.7)" style="stroke:none; fill:black; font-family:arial; font-size:10.00pt; text-anchor:middle">
		<text><tspan>200</tspan></text>
	</g>
	<path stroke='black'  d='M187.9,252.0 L187.9,244.5 M187.9,45.1 L187.9,52.6  h0.01'/>	<g transform="translate(187.9,270.7)" style="stroke:none; fill:black; font-family:arial; font-size:10.00pt; text-anchor:middle">
		<text><tspan>400</tspan></text>
	</g>
	<path stroke='black'  d='M251.5,252.0 L251.5,244.5 M251.5,45.1 L251.5,52.6  h0.01'/>	<g transform="translate(251.5,270.7)" style="stroke:none; fill:black; font-family:arial; font-size:10.00pt; text-anchor:middle">
		<text><tspan>600</tspan></text>
	</g>
	<path stroke='black'  d='M315.2,252.0 L315.2,244.5 M315.2,45.1 L315.2,52.6  h0.01'/>	<g transform="translate(315.2,270.7)" style="stroke:none; fill:black; font-family:arial; font-size:10.00pt; text-anchor:middle">
		<text><tspan>800</tspan></text>
	</g>
	<path stroke='black'  d='M378.9,252.0 L378.9,244.5 M378.9,45.1 L378.9,52.6  h0.01'/>	<g transform="translate(378.9,270.7)" style="stroke:none; fill:black; font-family:arial; font-size:10.00pt; text-anchor:middle">
		<text><tspan>1000</tspan></text>
	</g>
	<path stroke='black'  d='M60.5,45.1 L60.5,252.0 L378.9,252.0 L378.9,45.1 L60.5,45.1 Z  h0.01'/>	<g transform="translate(14.7,148.6) rotate(270)" style="stroke:none; fill:black; font-family:arial; font-size:10.00pt; text-anchor:middle">
		<text><tspan>Expected Comparisons</tspan></text>
	</g>
	<g transform="translate(219.7,293.2)" style="stroke:none; fill:black; font-family:arial; font-size:10.00pt; text-anchor:middle">
		<text><tspan>Array Size n</tspan></text>
	</g>
	<g transform="translate(219.7,26.3)" style="stroke:none; fill:black; font-family:arial; font-size:10.00pt; text-anchor:middle">
		<text><tspan>Expected Search Complexity</tspan></text>
	</g>
</g>
	<g id="gnuplot_plot_1" ><title>gnuplot_plot_1</title>
<g style="fill:none; color:red; stroke:currentColor; stroke-width:1.00; stroke-linecap:butt; stroke-linejoin:miter">
	<g transform="translate(123.5,63.8)" style="stroke:none; fill:black; font-family:arial; font-size:10.00pt; text-anchor:end">
		<text><tspan>p = 0.00</tspan></text>
	</g>
	<path  d='M130.5,60.1 L166.0,60.1 M60.5,252.0 L63.7,249.9 L66.9,247.8 L70.1,245.7 L73.4,243.6 L76.6,241.6 
		L79.8,239.5 L83.0,237.4 L86.2,235.3 L89.4,233.2 L92.7,231.1 L95.9,229.0 L99.1,226.9 L102.3,224.8 
		L105.5,222.7 L108.7,220.7 L112.0,218.6 L115.2,216.5 L118.4,214.4 L121.6,212.3 L124.8,210.2 L128.0,208.1 
		L131.3,206.0 L134.5,203.9 L137.7,201.8 L140.9,199.8 L144.1,197.7 L147.3,195.6 L150.6,193.5 L153.8,191.4 
		L157.0,189.3 L160.2,187.2 L163.4,185.1 L166.6,183.0 L169.8,180.9 L173.1,178.9 L176.3,176.8 L179.5,174.7 
		L182.7,172.6 L185.9,170.5 L189.1,168.4 L192.4,166.3 L195.6,164.2 L198.8,162.1 L202.0,160.0 L205.2,158.0 
		L208.4,155.9 L211.7,153.8 L214.9,151.7 L218.1,149.6 L221.3,147.5 L224.5,145.4 L227.7,143.3 L231.0,141.2 
		L234.2,139.1 L237.4,137.1 L240.6,135.0 L243.8,132.9 L247.0,130.8 L250.3,128.7 L253.5,126.6 L256.7,124.5 
		L259.9,122.4 L263.1,120.3 L266.3,118.2 L269.6,116.2 L272.8,114.1 L276.0,112.0 L279.2,109.9 L282.4,107.8 
		L285.6,105.7 L288.8,103.6 L292.1,101.5 L295.3,99.4 L298.5,97.3 L301.7,95.3 L304.9,93.2 L308.1,91.1 
		L311.4,89.0 L314.6,86.9 L317.8,84.8 L321.0,82.7 L324.2,80.6 L327.4,78.5 L330.7,76.4 L333.9,74.4 
		L337.1,72.3 L340.3,70.2 L343.5,68.1 L346.7,66.0 L350.0,63.9 L353.2,61.8 L356.4,59.7 L359.6,57.6 
		L362.8,55.5 L366.0,53.5 L369.3,51.4 L372.5,49.3 L375.7,47.2 L378.9,45.1  h0.01'/></g>
	</g>
	<g id="gnuplot_plot_2" ><title>gnuplot_plot_2</title>
<g style="fill:none; color:green; stroke:currentColor; stroke-width:1.00; stroke-linecap:butt; stroke-linejoin:miter">
	<g transform="translate(123.5,78.8)" style="stroke:none; fill:black; font-family:arial; font-size:10.00pt; text-anchor:end">
		<text><tspan>p = 0.25</tspan></text>
	</g>
	<path  d='M130.5,75.1 L166.0,75.1 M60.5,252.0 L63.7,250.1 L66.9,248.3 L70.1,246.5 L73.4,244.7 L76.6,242.8 
		L79.8,241.0 L83.0,239.2 L86.2,237.3 L89.4,235.5 L92.7,233.7 L95.9,231.9 L99.1,230.0 L102.3,228.2 
		L105.5,226.4 L108.7,224.5 L112.0,222.7 L115.2,220.9 L118.4,219.1 L121.6,217.2 L124.8,215.4 L128.0,213.6 
		L131.3,211.7 L134.5,209.9 L137.7,208.1 L140.9,206.3 L144.1,204.4 L147.3,202.6 L150.6,200.8 L153.8,198.9 
		L157.0,197.1 L160.2,195.3 L163.4,193.5 L166.6,191.6 L169.8,189.8 L173.1,188.0 L176.3,186.1 L179.5,184.3 
		L182.7,182.5 L185.9,180.7 L189.1,178.8 L192.4,177.0 L195.6,175.2 L198.8,173.3 L202.0,171.5 L205.2,169.7 
		L208.4,167.9 L211.7,166.0 L214.9,164.2 L218.1,162.4 L221.3,160.5 L224.5,158.7 L227.7,156.9 L231.0,155.1 
		L234.2,153.2 L237.4,151.4 L240.6,149.6 L243.8,147.7 L247.0,145.9 L250.3,144.1 L253.5,142.3 L256.7,140.4 
		L259.9,138.6 L263.1,136.8 L266.3,134.9 L269.6,133.1 L272.8,131.3 L276.0,129.5 L279.2,127.6 L282.4,125.8 
		L285.6,124.0 L288.8,122.1 L292.1,120.3 L295.3,118.5 L298.5,116.7 L301.7,114.8 L304.9,113.0 L308.1,111.2 
		L311.4,109.3 L314.6,107.5 L317.8,105.7 L321.0,103.9 L324.2,102.0 L327.4,100.2 L330.7,98.4 L333.9,96.5 
		L337.1,94.7 L340.3,92.9 L343.5,91.1 L346.7,89.2 L350.0,87.4 L353.2,85.6 L356.4,83.7 L359.6,81.9 
		L362.8,80.1 L366.0,78.3 L369.3,76.4 L372.5,74.6 L375.7,72.8 L378.9,70.9  h0.01'/></g>
	</g>
	<g id="gnuplot_plot_3" ><title>gnuplot_plot_3</title>
<g style="fill:none; color:blue; stroke:currentColor; stroke-width:1.00; stroke-linecap:butt; stroke-linejoin:miter">
	<g transform="translate(123.5,93.8)" style="stroke:none; fill:black; font-family:arial; font-size:10.00pt; text-anchor:end">
		<text><tspan>p = 0.50</tspan></text>
	</g>
	<path  d='M130.5,90.1 L166.0,90.1 M60.5,251.9 L63.7,250.4 L66.9,248.8 L70.1,247.2 L73.4,245.7 L76.6,244.1 
		L79.8,242.5 L83.0,241.0 L86.2,239.4 L89.4,237.8 L92.7,236.3 L95.9,234.7 L99.1,233.1 L102.3,231.6 
		L105.5,230.0 L108.7,228.4 L112.0,226.9 L115.2,225.3 L118.4,223.7 L121.6,222.2 L124.8,220.6 L128.0,219.0 
		L131.3,217.5 L134.5,215.9 L137.7,214.3 L140.9,212.8 L144.1,211.2 L147.3,209.6 L150.6,208.1 L153.8,206.5 
		L157.0,204.9 L160.2,203.4 L163.4,201.8 L166.6,200.2 L169.8,198.7 L173.1,197.1 L176.3,195.5 L179.5,194.0 
		L182.7,192.4 L185.9,190.8 L189.1,189.3 L192.4,187.7 L195.6,186.1 L198.8,184.5 L202.0,183.0 L205.2,181.4 
		L208.4,179.8 L211.7,178.3 L214.9,176.7 L218.1,175.1 L221.3,173.6 L224.5,172.0 L227.7,170.4 L231.0,168.9 
		L234.2,167.3 L237.4,165.7 L240.6,164.2 L243.8,162.6 L247.0,161.0 L250.3,159.5 L253.5,157.9 L256.7,156.3 
		L259.9,154.8 L263.1,153.2 L266.3,151.6 L269.6,150.1 L272.8,148.5 L276.0,146.9 L279.2,145.4 L282.4,143.8 
		L285.6,142.2 L288.8,140.7 L292.1,139.1 L295.3,137.5 L298.5,136.0 L301.7,134.4 L304.9,132.8 L308.1,131.3 
		L311.4,129.7 L314.6,128.1 L317.8,126.6 L321.0,125.0 L324.2,123.4 L327.4,121.9 L330.7,120.3 L333.9,118.7 
		L337.1,117.1 L340.3,115.6 L343.5,114.0 L346.7,112.4 L350.0,110.9 L353.2,109.3 L356.4,107.7 L359.6,106.2 
		L362.8,104.6 L366.0,103.0 L369.3,101.5 L372.5,99.9 L375.7,98.3 L378.9,96.8  h0.01'/></g>
	</g>
	<g id="gnuplot_plot_4" ><title>gnuplot_plot_4</title>
<g style="fill:none; color:cyan; stroke:currentColor; stroke-width:1.00; stroke-linecap:butt; stroke-linejoin:miter">
	<g transform="translate(123.5,108.8)" style="stroke:none; fill:black; font-family:arial; font-size:10.00pt; text-anchor:end">
		<text><tspan>p = 0.75</tspan></text>
	</g>
	<path  d='M130.5,105.1 L166.0,105.1 M60.5,251.9 L63.7,250.6 L66.9,249.3 L70.1,248.0 L73.4,246.7 L76.6,245.4 
		L79.8,244.1 L83.0,242.8 L86.2,241.5 L89.4,240.2 L92.7,238.9 L95.9,237.6 L99.1,236.2 L102.3,234.9 
		L105.5,233.6 L108.7,232.3 L112.0,231.0 L115.2,229.7 L118.4,228.4 L121.6,227.1 L124.8,225.8 L128.0,224.5 
		L131.3,223.2 L134.5,221.9 L137.7,220.6 L140.9,219.3 L144.1,218.0 L147.3,216.7 L150.6,215.3 L153.8,214.0 
		L157.0,212.7 L160.2,211.4 L163.4,210.1 L166.6,208.8 L169.8,207.5 L173.1,206.2 L176.3,204.9 L179.5,203.6 
		L182.7,202.3 L185.9,201.0 L189.1,199.7 L192.4,198.4 L195.6,197.1 L198.8,195.8 L202.0,194.5 L205.2,193.1 
		L208.4,191.8 L211.7,190.5 L214.9,189.2 L218.1,187.9 L221.3,186.6 L224.5,185.3 L227.7,184.0 L231.0,182.7 
		L234.2,181.4 L237.4,180.1 L240.6,178.8 L243.8,177.5 L247.0,176.2 L250.3,174.9 L253.5,173.6 L256.7,172.2 
		L259.9,170.9 L263.1,169.6 L266.3,168.3 L269.6,167.0 L272.8,165.7 L276.0,164.4 L279.2,163.1 L282.4,161.8 
		L285.6,160.5 L288.8,159.2 L292.1,157.9 L295.3,156.6 L298.5,155.3 L301.7,154.0 L304.9,152.7 L308.1,151.3 
		L311.4,150.0 L314.6,148.7 L317.8,147.4 L321.0,146.1 L324.2,144.8 L327.4,143.5 L330.7,142.2 L333.9,140.9 
		L337.1,139.6 L340.3,138.3 L343.5,137.0 L346.7,135.7 L350.0,134.4 L353.2,133.1 L356.4,131.8 L359.6,130.4 
		L362.8,129.1 L366.0,127.8 L369.3,126.5 L372.5,125.2 L375.7,123.9 L378.9,122.6  h0.01'/></g>
	</g>
	<g id="gnuplot_plot_5" ><title>gnuplot_plot_5</title>
<g style="fill:none; color:#157545; stroke:currentColor; stroke-width:1.00; stroke-linecap:butt; stroke-linejoin:miter">
	<g transform="translate(123.5,123.8)" style="stroke:none; fill:black; font-family:arial; font-size:10.00pt; text-anchor:end">
		<text><tspan>p = 1.00</tspan></text>
	</g>
	<path  d='M130.5,120.1 L166.0,120.1 M60.5,251.9 L63.7,250.9 L66.9,249.8 L70.1,248.8 L73.4,247.7 L76.6,246.7 
		L79.8,245.6 L83.0,244.6 L86.2,243.5 L89.4,242.5 L92.7,241.4 L95.9,240.4 L99.1,239.4 L102.3,238.3 
		L105.5,237.3 L108.7,236.2 L112.0,235.2 L115.2,234.1 L118.4,233.1 L121.6,232.0 L124.8,231.0 L128.0,230.0 
		L131.3,228.9 L134.5,227.9 L137.7,226.8 L140.9,225.8 L144.1,224.7 L147.3,223.7 L150.6,222.6 L153.8,221.6 
		L157.0,220.5 L160.2,219.5 L163.4,218.5 L166.6,217.4 L169.8,216.4 L173.1,215.3 L176.3,214.3 L179.5,213.2 
		L182.7,212.2 L185.9,211.1 L189.1,210.1 L192.4,209.1 L195.6,208.0 L198.8,207.0 L202.0,205.9 L205.2,204.9 
		L208.4,203.8 L211.7,202.8 L214.9,201.7 L218.1,200.7 L221.3,199.6 L224.5,198.6 L227.7,197.6 L231.0,196.5 
		L234.2,195.5 L237.4,194.4 L240.6,193.4 L243.8,192.3 L247.0,191.3 L250.3,190.2 L253.5,189.2 L256.7,188.2 
		L259.9,187.1 L263.1,186.1 L266.3,185.0 L269.6,184.0 L272.8,182.9 L276.0,181.9 L279.2,180.8 L282.4,179.8 
		L285.6,178.8 L288.8,177.7 L292.1,176.7 L295.3,175.6 L298.5,174.6 L301.7,173.5 L304.9,172.5 L308.1,171.4 
		L311.4,170.4 L314.6,169.3 L317.8,168.3 L321.0,167.3 L324.2,166.2 L327.4,165.2 L330.7,164.1 L333.9,163.1 
		L337.1,162.0 L340.3,161.0 L343.5,159.9 L346.7,158.9 L350.0,157.9 L353.2,156.8 L356.4,155.8 L359.6,154.7 
		L362.8,153.7 L366.0,152.6 L369.3,151.6 L372.5,150.5 L375.7,149.5 L378.9,148.4  h0.01'/></g>
	</g>
<g style="fill:none; color:black; stroke:currentColor; stroke-width:1.00; stroke-linecap:butt; stroke-linejoin:miter">
	<path stroke='black'  d='M60.5,45.1 L60.5,252.0 L378.9,252.0 L378.9,45.1 L60.5,45.1 Z  h0.01'/></g>
</g>
</svg>

